(150,350) (250,350) (150,300) (250,300) (200,250) (150,225) (160,175) (200,140) (240,120) (300,75) (200,120) (200,75) 
(150,350) (250,350) (150,300) (250,300) (200,250) (150,225) (160,175) (200,140) (272,132) (321,86) (200,120) (200,75) 
(150,350) (250,350) (150,300) (250,300) (200,250) (150,225) (160,175) (200,140) (272,132) (339,93) (200,120) (200,75) 
(150,350) (250,350) (150,300) (250,300) (200,250) (150,225) (160,175) (200,140) (272,132) (312,78) (200,120) (200,75) 
(150,350) (250,350) (150,300) (250,300) (200,250) (150,225) (160,175) (200,140) (272,132) (256,77) (200,120) (200,75) 
(150,350) (250,350) (150,300) (250,300) (200,250) (150,225) (160,175) (200,140) (272,132) (213,88) (200,120) (200,75) 
(150,350) (250,350) (150,300) (250,300) (200,250) (150,225) (160,175) (200,140) (272,132) (256,65) (200,120) (200,75) 
(150,350) (250,350) (150,300) (250,300) (200,250) (150,225) (160,175) (200,140) (272,132) (294,52) (200,120) (200,75) 
(150,350) (250,350) (150,300) (250,300) (200,250) (150,225) (160,175) (200,140) (272,132) (351,57) (200,120) (200,75) 
(150,350) (250,350) (150,300) (250,300) (200,250) (150,225) (160,175) (200,140) (272,132) (304,40) (200,120) (200,75) 
(150,350) (250,350) (150,300) (250,300) (200,250) (150,225) (160,175) (200,140) (272,132) (266,36) (200,120) (200,75) 
(150,350) (250,350) (150,300) (250,300) (200,250) (150,225) (160,175) (200,140) (272,132) (252,31) (200,120) (200,75) 
(150,350) (250,350) (150,300) (250,300) (200,250) (150,225) (160,175) (200,140) (272,132) (295,31) (200,120) (200,75) 
(150,350) (250,350) (150,300) (250,300) (200,250) (150,225) (160,175) (200,140) (272,132) (339,37) (200,120) (200,75) 
(150,350) (250,350) (150,300) (250,300) (200,250) (150,225) (160,175) (200,140) (272,132) (346,40) (200,120) (200,75) 
(150,350) (250,350) (150,300) (250,300) (200,250) (150,225) (160,175) (200,140) (272,132) (295,37) (200,120) (200,75) 
(150,350) (250,350) (150,300) (250,300) (200,250) (150,225) (160,175) (200,140) (272,132) (255,35) (200,120) (200,75) 
(150,350) (250,350) (150,300) (250,300) (200,250) (150,225) (160,175) (200,140) (272,132) (363,51) (200,120) (200,75) 
(150,350) (250,350) (150,300) (250,300) (200,250) (150,225) (160,175) (200,140) (272,132) (401,82) (200,120) (200,75) 
(150,350) (250,350) (150,300) (250,300) (200,250) (150,225) (160,175) (200,140) (272,132) (344,44) (200,120) (200,75) 
(150,350) (250,350) (150,300) (250,300) (200,250) (150,225) (160,175) (200,140) (272,132) (289,36) (200,120) (200,75) 
(150,350) (250,350) (150,300) (250,300) (200,250) (150,225) (160,175) (200,140) (272,132) (249,35) (200,120) (200,75) 
(150,350) (250,350) (150,300) (250,300) (200,250) (150,225) (160,175) (200,140) (272,132) (297,43) (200,120) (200,75) 
(150,350) (250,350) (150,300) (250,300) (200,250) (150,225) (160,175) (200,140) (240,120) (300,75) (200,120) (200,75) 
(150,350) (250,350) (150,300) (250,300) (200,250) (150,225) (160,175) (200,140) (251,131) (310,155) (200,120) (200,75) 
(150,350) (250,350) (150,300) (250,300) (200,250) (150,225) (160,175) (200,140) (247,170) (261,216) (200,120) (200,75) 
(150,350) (250,350) (150,300) (250,300) (200,250) (150,225) (160,175) (200,140) (247,170) (261,216) (172,115) (168,72) 
(150,350) (250,350) (150,300) (250,300) (200,250) (202,179) (136,160) (181,140) (210,199) (261,216) (172,115) (168,72) 
(150,350) (250,350) (150,300) (250,300) (200,250) (312,177) (164,185) (181,140) (210,199) (261,216) (172,115) (168,72) 
(150,350) (250,350) (150,300) (250,300) (200,250) (220,201) (128,192) (181,140) (237,179) (359,173) (172,115) (168,72) 
(150,350) (250,350) (150,300) (250,300) (200,250) (233,198) (158,194) (181,140) (237,150) (315,147) (172,115) (168,72) 
(150,350) (250,350) (150,300) (250,300) (200,250) (334,182) (209,185) (181,140) (131,205) (180,228) (172,115) (168,72) 
(150,350) (250,350) (150,300) (250,300) (200,250) (505,169) (209,185) (181,140) (131,205) (180,228) (172,115) (168,72) 
(150,350) (250,350) (150,300) (250,300) (200,250) (440,191) (274,183) (181,140) (131,205) (180,228) (172,115) (168,72) 
(150,350) (250,350) (150,300) (250,300) (200,250) (259,186) (208,181) (181,140) (131,205) (180,228) (172,115) (168,72) 
(150,350) (250,350) (150,300) (250,300) (200,250) (90,115) (71,132) (181,140) (169,201) (224,208) (172,115) (168,72) 
(150,350) (250,350) (150,300) (250,300) (200,250) (64,113) (20,128) (181,140) (169,201) (224,208) (172,115) (168,72) 
(150,350) (250,350) (150,300) (250,300) (200,250) (109,94) (20,128) (181,140) (169,201) (224,208) (172,115) (168,72) 
(150,350) (250,350) (150,300) (250,300) (200,250) (143,86) (65,109) (181,140) (169,201) (224,208) (172,115) (187,71) 
(150,350) (250,350) (150,300) (250,300) (200,250) (190,82) (94,107) (181,140) (169,201) (224,208) (202,115) (238,75) 
(150,350) (250,350) (150,300) (250,300) (200,250) (263,81) (155,98) (181,140) (169,201) (224,208) (202,115) (307,76) 
(150,350) (250,350) (150,300) (250,300) (200,250) (331,72) (223,94) (181,140) (169,201) (224,208) (179,118) (391,71) 
(150,350) (250,350) (150,300) (250,300) (200,250) (410,79) (240,93) (181,140) (169,201) (224,208) (179,118) (313,73) 
(150,350) (250,350) (150,300) (250,300) (200,250) (335,85) (229,97) (181,140) (169,201) (224,208) (179,118) (181,70) 
(150,350) (250,350) (150,300) (250,300) (200,250) (254,119) (215,171) (181,140) (169,201) (224,208) (179,118) (91,71) 
(150,350) (250,350) (150,300) (250,300) (200,250) (254,119) (215,171) (181,140) (163,202) (168,224) (179,118) (54,69) 
(150,350) (250,350) (150,300) (250,300) (200,250) (254,119) (215,171) (181,140) (163,202) (168,224) (179,118) (173,70) 
(150,350) (250,350) (150,300) (250,300) (200,250) (254,119) (215,171) (197,140) (156,166) (168,224) (197,121) (192,72) 
(150,350) (250,350) (150,300) (250,300) (200,250) (278,72) (246,127) (197,140) (156,166) (161,231) (197,121) (192,72) 
(150,350) (250,350) (150,300) (250,300) (200,250) (150,225) (160,175) (200,140) (240,120) (300,75) (200,120) (200,75) 
(150,350) (250,350) (150,314) (250,317) (200,269) (150,225) (160,175) (200,160) (256,149) (300,75) (199,143) (201,96) 
(150,350) (250,350) (150,314) (250,317) (200,269) (160,262) (166,201) (199,176) (249,171) (286,120) (198,156) (200,115) 
(150,350) (250,350) (150,314) (250,317) (200,269) (160,277) (170,234) (200,214) (242,204) (276,150) (197,177) (200,137) 
(150,350) (250,350) (170,318) (250,317) (198,291) (160,277) (172,224) (199,239) (240,222) (276,150) (197,219) (200,182) 
(169,349) (235,349) (170,318) (234,315) (198,291) (158,287) (168,253) (197,240) (233,247) (267,178) (197,219) (200,182) 
(169,349) (235,349) (169,326) (235,329) (199,309) (158,287) (168,253) (197,261) (233,247) (267,178) (197,245) (198,207) 
(169,349) (235,349) (169,326) (235,329) (199,309) (162,302) (174,273) (197,261) (233,247) (268,223) (197,245) (198,207) 
(169,349) (235,349) (169,326) (235,329) (199,309) (162,302) (174,273) (198,269) (233,264) (261,230) (198,247) (197,210) 
(169,349) (235,349) (169,326) (235,329) (199,309) (162,302) (174,273) (198,269) (228,268) (256,299) (198,247) (197,210) 
(169,349) (235,349) (169,326) (235,329) (199,309) (157,248) (144,280) (198,269) (228,268) (256,299) (198,247) (197,210) 
(169,349) (235,349) (169,326) (235,329) (199,309) (182,223) (144,280) (198,269) (228,268) (256,299) (198,247) (197,210) 
(169,349) (235,349) (169,326) (235,329) (199,309) (159,255) (144,280) (198,269) (228,268) (256,299) (198,247) (197,210) 
(169,349) (235,349) (169,326) (235,329) (199,309) (176,226) (144,280) (198,269) (228,268) (256,299) (198,247) (197,210) 
(169,349) (235,349) (169,326) (235,329) (199,309) (164,246) (144,280) (198,269) (228,268) (256,299) (198,247) (197,210) 
(169,349) (235,349) (169,326) (235,329) (199,309) (151,269) (144,280) (198,269) (228,268) (256,299) (198,247) (197,210) 
(169,349) (235,349) (169,326) (235,329) (199,309) (169,244) (144,280) (198,269) (228,268) (256,299) (198,247) (197,210) 
(169,349) (235,349) (169,326) (235,329) (199,309) (183,226) (144,280) (198,269) (228,268) (256,299) (198,247) (197,210) 
(169,349) (235,349) (169,326) (235,329) (199,309) (196,209) (144,280) (198,269) (228,268) (256,299) (198,247) (197,210) 
(169,349) (235,349) (169,326) (235,329) (199,309) (183,225) (144,280) (198,269) (228,268) (256,299) (198,247) (197,210) 
(169,349) (235,349) (169,326) (235,329) (199,309) (170,244) (144,280) (198,269) (228,268) (256,299) (198,247) (197,210) 
(169,349) (235,349) (169,326) (235,329) (199,309) (154,261) (144,280) (198,269) (228,268) (256,299) (198,247) (197,210) 
(169,349) (235,349) (169,326) (235,329) (199,309) (161,244) (144,280) (198,269) (228,268) (256,299) (198,247) (197,210) 
(169,349) (235,349) (169,326) (235,329) (199,309) (183,224) (144,280) (198,269) (228,268) (256,299) (198,247) (197,210) 
(169,349) (235,349) (169,326) (235,329) (199,309) (227,155) (144,280) (205,276) (235,282) (263,319) (213,248) (222,215) 
(179,347) (235,349) (152,328) (205,343) (199,309) (227,155) (144,280) (216,288) (251,311) (263,319) (238,265) (245,238) 
(179,347) (235,349) (152,328) (205,343) (204,327) (210,260) (187,296) (233,316) (269,330) (283,348) (268,299) (261,260) 
(179,347) (235,349) (152,328) (205,343) (204,327) (210,260) (187,296) (233,316) (269,330) (283,348) (291,324) (296,290) 
(179,347) (235,349) (152,328) (190,344) (180,333) (208,317) (252,317) (232,329) (240,345) (283,348) (298,343) (300,319) 
(179,347) (235,349) (151,340) (190,344) (180,333) (211,327) (253,323) (234,335) (240,345) (283,348) (298,343) (300,319) 
(179,347) (235,349) (151,340) (190,344) (180,333) (211,327) (253,323) (234,335) (240,345) (283,348) (298,343) (300,319) 
(179,347) (235,349) (151,340) (190,344) (180,333) (211,327) (253,323) (234,335) (240,345) (283,348) (298,343) (300,319) 
(179,347) (235,349) (151,340) (190,344) (180,333) (211,327) (253,323) (234,335) (240,345) (283,348) (298,343) (300,319) 
(179,347) (235,349) (151,340) (190,344) (180,333) (211,327) (253,323) (234,335) (240,345) (283,348) (298,343) (300,319) 
(179,347) (235,349) (151,340) (190,344) (180,333) (211,327) (253,323) (234,335) (240,345) (283,348) (298,343) (300,319) 
(179,347) (235,349) (151,340) (190,344) (180,333) (211,327) (253,323) (234,335) (240,345) (283,348) (298,343) (300,319) 
(179,347) (235,349) (215,330) (253,335) (180,333) (211,327) (196,321) (200,304) (239,325) (250,324) (283,274) (297,304) 
(179,347) (235,349) (224,331) (253,335) (194,305) (174,293) (149,275) (201,269) (249,314) (284,353) (229,233) (245,262) 
(179,347) (235,349) (183,329) (238,334) (194,305) (174,293) (149,275) (201,269) (237,305) (244,325) (200,249) (198,215) 
(180,346) (230,348) (180,328) (230,329) (203,312) (164,308) (172,279) (203,267) (228,282) (242,314) (200,249) (198,215) 
(180,346) (230,348) (180,328) (230,329) (203,312) (164,308) (172,279) (203,267) (228,282) (242,314) (202,254) (197,201) 
(180,346) (230,348) (180,328) (230,329) (203,312) (164,308) (172,279) (203,267) (228,282) (242,314) (202,254) (197,144) 
(180,346) (230,348) (180,328) (230,329) (203,312) (164,308) (172,279) (203,267) (228,282) (242,314) (202,254) (190,92) 
(180,346) (230,348) (180,328) (230,329) (203,312) (164,308) (172,279) (203,267) (228,282) (242,314) (202,254) (192,40) 
(180,346) (230,348) (180,328) (230,329) (203,312) (164,308) (172,279) (203,267) (228,282) (242,314) (202,254) (196,22) 
(180,346) (230,348) (180,328) (230,329) (203,312) (164,308) (172,279) (203,267) (228,282) (242,314) (199,203) (196,22) 
(180,346) (230,348) (180,328) (230,329) (203,312) (164,308) (172,279) (203,267) (228,282) (242,314) (201,152) (196,22) 
(180,346) (230,348) (180,328) (230,329) (203,312) (164,308) (172,279) (203,267) (228,282) (242,314) (201,105) (196,22) 
(180,346) (230,348) (180,328) (230,329) (203,312) (164,308) (172,279) (203,267) (228,282) (242,314) (202,56) (196,22) 
(180,346) (230,348) (180,328) (230,329) (203,312) (164,308) (172,279) (203,267) (228,282) (242,314) (197,44) (196,22) 
(180,346) (230,348) (180,328) (230,329) (203,312) (164,308) (172,279) (201,243) (228,282) (242,314) (197,44) (196,22) 
(180,346) (230,348) (180,328) (230,329) (203,300) (132,285) (133,211) (200,94) (253,205) (265,265) (198,78) (196,22) 
(180,346) (230,348) (180,328) (230,329) (203,300) (132,285) (133,211) (200,128) (253,205) (265,265) (200,103) (196,22) 
(180,346) (230,348) (178,287) (228,286) (200,247) (132,285) (133,211) (200,128) (253,205) (265,265) (200,103) (195,69) 
(150,350) (250,350) (150,300) (250,300) (200,250) (150,225) (160,175) (200,140) (240,120) (300,75) (200,120) (200,75) 
(150,350) (250,350) (150,300) (250,300) (200,250) (150,225) (160,175) (200,140) (240,120) (300,75) (200,120) (200,75) 
(150,350) (250,350) (150,300) (250,300) (200,250) (150,225) (160,175) (200,140) (240,120) (300,75) (200,120) (200,75) 
(150,350) (317,300) (150,300) (278,244) (200,250) (150,225) (160,175) (200,140) (240,120) (300,75) (200,120) (200,75) 
(150,350) (324,227) (150,300) (257,191) (200,250) (150,225) (160,175) (200,140) (240,120) (300,75) (200,120) (200,75) 
(150,350) (405,227) (150,300) (275,201) (200,250) (150,225) (160,175) (200,140) (240,120) (300,75) (200,120) (200,75) 
(150,350) (442,242) (150,300) (311,220) (200,250) (150,225) (160,175) (200,140) (240,120) (300,75) (200,120) (200,75) 
(150,350) (348,276) (150,300) (311,220) (200,250) (150,225) (160,175) (200,140) (240,120) (300,75) (200,120) (200,75) 
(150,350) (263,273) (150,300) (311,220) (200,250) (150,225) (160,175) (200,140) (240,120) (300,75) (200,120) (200,75) 
(150,350) (337,265) (150,300) (311,220) (200,250) (150,225) (160,175) (200,140) (240,120) (300,75) (200,120) (200,75) 
(150,350) (425,243) (150,300) (311,220) (200,250) (150,225) (160,175) (200,140) (240,120) (300,75) (200,120) (200,75) 
(150,350) (370,261) (150,300) (284,221) (200,250) (220,195) (160,175) (200,140) (240,120) (297,95) (200,120) (200,75) 
(150,350) (327,293) (150,300) (269,245) (200,250) (283,169) (213,175) (200,140) (225,141) (297,95) (200,120) (200,75) 
(150,350) (258,345) (150,300) (250,267) (200,250) (390,154) (265,181) (200,140) (225,141) (297,95) (200,120) (200,75) 
(150,350) (258,345) (150,300) (250,267) (200,250) (390,154) (265,181) (200,140) (225,141) (402,21) (200,120) (200,75) 
(150,350) (258,345) (150,300) (250,267) (200,250) (154,217) (120,181) (200,140) (225,141) (402,21) (200,120) (200,75) 
(150,350) (258,345) (150,300) (250,267) (200,250) (154,217) (120,181) (200,140) (225,141) (416,34) (200,120) (200,75) 
(150,350) (258,345) (150,300) (250,267) (200,250) (154,217) (120,181) (200,140) (225,141) (430,77) (200,120) (200,75) 
(150,350) (258,345) (150,300) (250,267) (200,250) (154,217) (120,181) (200,140) (225,141) (438,116) (200,120) (200,75) 
(150,350) (258,345) (150,300) (250,267) (200,250) (154,217) (120,181) (200,140) (225,141) (438,144) (200,120) (200,75) 
(150,350) (258,345) (150,300) (250,267) (200,250) (154,217) (120,181) (200,140) (225,141) (304,167) (200,120) (200,75) 
(150,350) (258,345) (150,300) (250,267) (200,250) (154,217) (120,181) (200,140) (259,141) (270,202) (200,120) (200,75) 
(150,350) (258,345) (150,300) (250,267) (200,250) (154,217) (120,181) (200,140) (259,141) (316,155) (200,120) (200,75) 
(150,350) (258,345) (150,300) (250,267) (200,250) (154,217) (120,181) (200,140) (259,141) (326,99) (200,120) (200,75) 
(150,350) (258,345) (150,300) (250,267) (200,250) (154,217) (120,181) (200,140) (259,141) (326,69) (200,120) (200,75) 
(150,350) (258,345) (150,300) (250,267) (200,250) (154,217) (120,181) (200,140) (267,155) (326,69) (200,120) (200,75) 
(150,350) (258,345) (150,300) (250,267) (200,250) (154,217) (120,181) (200,140) (273,183) (271,99) (200,120) (200,75) 
(150,350) (258,345) (150,300) (250,267) (200,250) (154,217) (120,181) (200,140) (267,151) (317,81) (200,120) (200,75) 
(150,350) (258,345) (150,300) (250,267) (200,250) (154,217) (120,181) (200,140) (283,179) (289,91) (200,120) (200,75) 
(150,350) (258,345) (150,300) (250,267) (200,250) (154,217) (120,181) (200,140) (274,148) (318,83) (200,120) (200,75) 
(150,350) (258,345) (150,300) (250,267) (200,250) (154,217) (120,181) (200,140) (293,171) (291,84) (200,120) (200,75) 
(150,350) (258,345) (150,300) (250,267) (200,250) (154,217) (120,181) (200,140) (293,171) (291,84) (200,120) (200,75) 
(150,350) (258,345) (150,300) (250,267) (200,250) (154,217) (120,181) (200,140) (275,149) (319,66) (200,120) (200,75) 
(150,350) (258,345) (150,300) (250,267) (200,250) (154,217) (120,181) (200,140) (284,162) (303,75) (200,120) (200,75) 
(150,350) (258,345) (150,300) (250,267) (200,250) (154,217) (120,181) (200,140) (295,188) (289,103) (200,120) (200,75) 
(150,350) (258,345) (150,300) (250,267) (200,250) (154,217) (120,181) (200,140) (295,188) (274,109) (200,120) (200,75) 
(150,350) (258,345) (150,300) (250,267) (200,250) (154,217) (120,181) (200,140) (295,188) (300,107) (200,120) (200,75) 
(150,350) (258,345) (150,300) (250,267) (200,250) (154,217) (120,181) (200,140) (285,164) (318,74) (200,120) (200,75) 
(150,350) (250,350) (150,300) (250,300) (200,250) (150,225) (160,175) (200,140) (240,120) (300,75) (200,120) (200,75) 
(150,350) (250,350) (150,300) (250,300) (200,250) (150,225) (200,154) (200,140) (200,161) (300,75) (200,120) (200,75) 
(150,350) (250,350) (150,300) (250,300) (200,250) (150,225) (200,151) (200,168) (200,161) (300,75) (200,120) (200,75) 
(150,350) (250,350) (150,300) (250,300) (200,250) (150,225) (200,151) (200,216) (200,161) (300,75) (200,120) (200,75) 
(150,350) (250,350) (150,300) (250,300) (200,250) (150,225) (200,151) (200,242) (200,161) (300,75) (200,120) (200,75) 
(150,350) (250,350) (150,300) (250,300) (200,250) (125,209) (200,156) (200,243) (200,161) (277,178) (200,120) (200,75) 
(150,350) (250,350) (150,300) (250,300) (200,250) (125,209) (200,156) (198,228) (200,161) (277,178) (200,120) (200,75) 
(150,350) (250,350) (150,300) (250,300) (200,250) (125,209) (200,156) (199,208) (200,161) (277,178) (200,120) (200,75) 
(150,350) (250,350) (150,300) (250,300) (200,250) (125,209) (200,156) (200,194) (200,161) (277,178) (200,120) (200,75) 
(150,350) (250,350) (150,300) (250,300) (200,250) (125,209) (200,156) (200,180) (200,161) (277,178) (200,120) (200,75) 
(150,350) (250,350) (150,300) (250,300) (200,250) (125,209) (200,156) (201,165) (200,161) (277,178) (200,120) (200,75) 
(150,350) (250,350) (150,300) (250,300) (200,250) (125,209) (200,156) (200,149) (200,161) (277,178) (200,120) (200,75) 
(150,350) (250,350) (150,300) (250,300) (200,250) (125,209) (200,156) (200,137) (200,161) (277,178) (200,120) (200,75) 
(150,350) (250,350) (150,300) (250,300) (200,250) (125,209) (200,156) (200,132) (200,161) (277,178) (200,120) (200,75) 
(150,350) (250,350) (150,300) (250,300) (200,250) (125,209) (200,156) (200,131) (200,161) (277,178) (200,120) (200,75) 
(150,350) (250,350) (150,300) (250,300) (200,250) (125,209) (200,156) (200,147) (200,161) (277,178) (200,120) (200,75) 
(150,350) (250,350) (150,300) (250,300) (200,250) (125,209) (200,156) (200,169) (200,161) (277,178) (200,120) (200,75) 
(150,350) (250,350) (150,300) (250,300) (200,250) (125,209) (200,156) (200,187) (200,161) (277,178) (200,120) (200,75) 
(150,350) (250,350) (150,300) (250,300) (200,250) (125,209) (200,156) (200,208) (200,161) (277,178) (200,120) (200,75) 
(150,350) (250,350) (150,300) (250,300) (200,250) (125,209) (200,156) (200,249) (200,161) (277,178) (200,120) (200,75) 
(150,350) (250,350) (150,300) (250,300) (200,250) (125,209) (200,156) (199,305) (200,161) (277,178) (200,120) (200,75) 
(150,350) (250,350) (150,300) (250,300) (200,250) (125,209) (200,156) (199,390) (200,161) (277,178) (200,120) (200,75) 
(150,350) (250,350) (150,300) (250,300) (200,250) (125,209) (200,156) (199,426) (200,161) (277,178) (200,120) (200,75) 
(150,350) (250,350) (150,300) (250,300) (200,250) (125,209) (200,156) (199,438) (200,161) (277,178) (200,120) (200,75) 
(150,350) (250,350) (150,300) (250,300) (200,250) (125,209) (200,156) (251,453) (200,161) (277,178) (200,120) (200,75) 
(150,350) (250,350) (150,300) (250,300) (200,250) (125,209) (200,156) (398,413) (200,161) (277,178) (200,120) (200,75) 
(150,350) (250,350) (150,300) (250,300) (200,250) (125,209) (200,156) (484,349) (200,161) (277,178) (200,120) (200,75) 
(150,350) (250,350) (150,300) (250,300) (200,250) (125,209) (200,156) (550,237) (200,161) (277,178) (200,120) (200,75) 
(150,350) (250,350) (150,300) (250,300) (200,250) (125,209) (200,156) (573,139) (200,161) (277,178) (200,120) (200,75) 
(150,350) (250,350) (150,300) (250,300) (200,250) (125,209) (200,156) (570,88) (200,161) (277,178) (200,120) (200,75) 
(150,350) (250,350) (150,300) (250,300) (200,250) (125,209) (200,156) (472,-51) (200,161) (277,178) (200,120) (200,75) 
(150,350) (250,350) (150,300) (250,300) (200,250) (125,209) (200,156) (309,-87) (200,161) (277,178) (200,120) (200,75) 
(150,350) (250,350) (150,300) (250,300) (200,250) (125,209) (200,156) (135,-84) (200,161) (277,178) (200,120) (200,75) 
(150,350) (250,350) (150,300) (250,300) (200,250) (125,209) (200,156) (-2,-34) (200,161) (277,178) (200,120) (200,75) 
(150,350) (250,350) (150,300) (250,300) (200,250) (125,209) (200,156) (-52,40) (200,161) (277,178) (200,120) (200,75) 
(150,350) (250,350) (150,300) (250,300) (200,250) (125,209) (200,156) (-108,153) (200,161) (277,178) (200,120) (200,75) 
(150,350) (250,350) (150,300) (250,300) (200,250) (125,209) (200,156) (-108,247) (200,161) (277,178) (200,120) (200,75) 
(150,350) (250,350) (150,300) (250,300) (200,250) (125,209) (200,156) (101,461) (200,161) (277,178) (200,120) (200,75) 
(150,350) (250,350) (150,300) (250,300) (200,250) (125,209) (200,156) (168,473) (200,161) (277,178) (200,120) (200,75) 
(150,350) (250,350) (150,300) (250,300) (200,250) (125,209) (200,156) (199,473) (200,161) (277,178) (200,120) (200,75) 
(150,350) (250,350) (150,300) (250,300) (200,250) (125,209) (200,156) (199,319) (200,161) (277,178) (200,120) (200,75) 
(150,350) (250,350) (150,300) (250,300) (200,250) (125,209) (200,156) (199,237) (200,161) (277,178) (200,120) (200,75) 
(150,350) (250,350) (150,300) (250,300) (200,250) (125,209) (200,156) (198,174) (200,161) (277,178) (200,120) (200,75) 
(150,350) (250,350) (150,300) (250,300) (200,250) (135,251) (152,196) (200,148) (251,135) (291,66) (200,120) (200,75) 
(150,350) (250,350) (150,300) (250,300) (200,250) (150,225) (160,175) (200,140) (240,120) (300,75) (200,120) (200,75) 
(150,350) (250,350) (150,300) (250,300) (200,250) (150,225) (160,175) (200,140) (240,120) (300,75) (200,120) (200,75) 
(150,350) (250,350) (150,300) (250,300) (200,250) (150,225) (160,175) (200,140) (240,120) (300,75) (200,120) (200,75) 
(150,350) (250,350) (150,300) (250,300) (200,250) (150,225) (160,175) (200,140) (240,120) (300,75) (200,120) (200,75) 
(150,350) (250,350) (150,300) (250,300) (200,250) (150,225) (160,175) (200,140) (240,120) (300,75) (200,120) (200,75) 
